{
  "persons": [
    {
      "firstname": "qwe",
      "lastname": "qwe",
      "id": 1
    },
    {
      "firstname": "Ivan",
      "lastname": "Ivanon",
      "id": 3
    },
    {
      "firstname": "Ivan",
      "lastname": "Ivanon",
      "id": 4
    },
    {
      "firstname": "Ivan",
      "lastname": "Ivanon",
      "id": 5
    }
  ]
}